{"name":"getUsers","id":"SerenityInitialTests:getUsers","testCaseName":"SerenityInitialTests","testSteps":[{"number":1,"description":"Cosa get users","duration":9996,"startTime":"2021-09-08T21:59:21.042814900-05:00[America/Bogota]","result":"SUCCESS","precondition":false,"level":0,"children":[{"number":2,"description":"cosa executes a GET on the resource /users?page\u003d1","duration":9914,"startTime":"2021-09-08T21:59:21.118612200-05:00[America/Bogota]","result":"SUCCESS","precondition":false,"level":1,"children":[{"number":3,"description":"GET http://localhost:5000/api/users?page\u003d1\r","duration":2,"startTime":"2021-09-08T21:59:31.027121600-05:00[America/Bogota]","result":"SUCCESS","restQuery":{"method":"GET","path":"http://localhost:5000/api/users?page\u003d1\r","content":"\r","contentType":"null","requestHeaders":"Accept\u003d*/*\r","requestCookies":"\r","responseHeaders":"X-Powered-By: Express\r\nAccess-Control-Allow-Origin: *\r\nContent-Type: application/json; charset\u003dutf-8\r\nContent-Length: 539\r\nETag: W/\"21b-fFOA+z2p0qqZtiTcYG5d6jtK5Cs\"\r\nDate: Thu, 09 Sep 2021 02:59:30 GMT\r\nConnection: keep-alive\r\nKeep-Alive: timeout\u003d5\r","responseCookies":"\r","responseBody":"{\n    \"page\": 1,\n    \"per_page\": 3,\n    \"total\": 12,\n    \"total_pages\": 4,\n    \"data\": [\n        {\n            \"id\": 1,\n            \"email\": \"george.bluth@reqres.in\",\n            \"first_name\": \"George\",\n            \"last_name\": \"Bluth\",\n            \"avatar\": \"https://s3.amazonaws.com/uifaces/faces/twitter/calebogden/128.jpg\"\n        },\n        {\n            \"id\": 2,\n            \"email\": \"janet.weaver@reqres.in\",\n            \"first_name\": \"Janet\",\n            \"last_name\": \"Weaver\",\n            \"avatar\": \"https://s3.amazonaws.com/uifaces/faces/twitter/josephstein/128.jpg\"\n        },\n        {\n            \"id\": 3,\n            \"email\": \"emma.wong@reqres.in\",\n            \"first_name\": \"Emma\",\n            \"last_name\": \"Wong\",\n            \"avatar\": \"https://s3.amazonaws.com/uifaces/faces/twitter/olegpogodaev/128.jpg\"\n        }\n    ]\n}","statusCode":200},"precondition":false,"level":2}]}]}],"userStory":{"id":"SerenityInitialTests","storyName":"Serenity initial tests","storyClassName":"SerenityInitialTests","path":"","type":"story"},"featureTag":{"name":"Serenity initial tests","type":"story","displayName":"Serenity initial tests"},"title":"Get users","tags":[{"name":"Serenity initial tests","type":"story","displayName":"Serenity initial tests"}],"startTime":"2021-09-08T21:59:20.144216700-05:00[America/Bogota]","duration":11005,"testFailureCause":{"errorType":"java.lang.AssertionError","message":"expected:\u003c200\u003e but was:\u003cfalse\u003e","stackTrace":[{"declaringClass":"SerenityInitialTests","methodName":"getUsers","fileName":"SerenityInitialTests.java","lineNumber":37}]},"testFailureClassname":"java.lang.AssertionError","testFailureMessage":"expected:\u003c200\u003e but was:\u003cfalse\u003e","testFailureSummary":"FAILURE;java.lang.AssertionError;expected:\u003c200\u003e but was:\u003cfalse\u003e;SerenityInitialTests.java","projectKey":"","annotatedResult":"FAILURE","isManualTestingUpToDate":false,"manual":false,"testSource":"JUnit","actors":[{"name":"Rhonal","can":["call an API at http://localhost:5000/api"]},{"name":"cosa","can":["call an API at http://localhost:5000/api"]}],"order":0,"result":"FAILURE"}