{"name":"getUserFail","id":"SerenityInitialTests:getUserFail","testCaseName":"SerenityInitialTests","testSteps":[{"number":1,"description":"Manager get users","duration":5827,"startTime":"2021-09-08T21:35:51.924363300-05:00[America/Bogota]","result":"SUCCESS","precondition":false,"level":0,"children":[{"number":2,"description":"Manager executes a GET on the resource /users?page\u003d2","duration":5760,"startTime":"2021-09-08T21:35:51.976226300-05:00[America/Bogota]","result":"SUCCESS","precondition":false,"level":1,"children":[{"number":3,"description":"GET http://localhost:5000/api/users?page\u003d2\r","duration":2,"startTime":"2021-09-08T21:35:57.727848700-05:00[America/Bogota]","result":"SUCCESS","restQuery":{"method":"GET","path":"http://localhost:5000/api/users?page\u003d2\r","content":"\r","contentType":"null","requestHeaders":"Accept\u003d*/*\r","requestCookies":"\r","responseHeaders":"X-Powered-By: Express\r\nAccess-Control-Allow-Origin: *\r\nContent-Type: application/json; charset\u003dutf-8\r\nContent-Length: 540\r\nETag: W/\"21c-V3l8h04l5/8zLV+i3u8GJo8G3Y8\"\r\nDate: Thu, 09 Sep 2021 02:35:57 GMT\r\nConnection: keep-alive\r\nKeep-Alive: timeout\u003d5\r","responseCookies":"\r","responseBody":"{\n    \"page\": 2,\n    \"per_page\": 3,\n    \"total\": 12,\n    \"total_pages\": 4,\n    \"data\": [\n        {\n            \"id\": 4,\n            \"email\": \"eve.holt@reqres.in\",\n            \"first_name\": \"Eve\",\n            \"last_name\": \"Holt\",\n            \"avatar\": \"https://s3.amazonaws.com/uifaces/faces/twitter/marcoramires/128.jpg\"\n        },\n        {\n            \"id\": 5,\n            \"email\": \"charles.morris@reqres.in\",\n            \"first_name\": \"Charles\",\n            \"last_name\": \"Morris\",\n            \"avatar\": \"https://s3.amazonaws.com/uifaces/faces/twitter/stephenmoon/128.jpg\"\n        },\n        {\n            \"id\": 6,\n            \"email\": \"tracey.ramos@reqres.in\",\n            \"first_name\": \"Tracey\",\n            \"last_name\": \"Ramos\",\n            \"avatar\": \"https://s3.amazonaws.com/uifaces/faces/twitter/bigmancho/128.jpg\"\n        }\n    ]\n}","statusCode":200},"precondition":false,"level":2}]}]}],"userStory":{"id":"SerenityInitialTests","storyName":"Serenity initial tests","storyClassName":"SerenityInitialTests","path":"","type":"story"},"featureTag":{"name":"Serenity initial tests","type":"story","displayName":"Serenity initial tests"},"title":"Get user fail","tags":[{"name":"Serenity initial tests","type":"story","displayName":"Serenity initial tests"}],"startTime":"2021-09-08T21:35:51.345910400-05:00[America/Bogota]","duration":6479,"testFailureCause":{"errorType":"java.lang.AssertionError","message":"expected:\u003c200\u003e but was:\u003cfalse\u003e","stackTrace":[{"declaringClass":"SerenityInitialTests","methodName":"getUserFail","fileName":"SerenityInitialTests.java","lineNumber":58}]},"testFailureClassname":"java.lang.AssertionError","testFailureMessage":"expected:\u003c200\u003e but was:\u003cfalse\u003e","testFailureSummary":"FAILURE;java.lang.AssertionError;expected:\u003c200\u003e but was:\u003cfalse\u003e;SerenityInitialTests.java","projectKey":"","annotatedResult":"FAILURE","isManualTestingUpToDate":false,"manual":false,"testSource":"JUnit","actors":[{"name":"Manager","can":["call an API at http://localhost:5000/api"]}],"order":0,"result":"FAILURE"}